dut/I2S_IP/I2S_IP.sim/sim_1/behav/xsim/dump.vcd
$date
   Tue Dec 24 11:37:41 2024
$end
$version
  2022.1
$end
$timescale
  1ps
$end
$scope module i2s_tx_10xe_tb_top $end
$var reg 1 ! clk $end
$var reg 1 " rst $end
$var reg 1 # rst_n $end
$scope module axi4_lite_intf $end
$var wire 1 $ s_axi_ctrl_aclk $end
$var wire 1 % s_axi_ctrl_aresetn $end
$var reg 1 & s_axi_ctrl_awvalid $end
$var reg 1 ' s_axi_ctrl_awready $end
$var reg 8 ( s_axi_ctrl_awaddr [7:0] $end
$var reg 1 ) s_axi_ctrl_wvalid $end
$var reg 1 * s_axi_ctrl_wready $end
$var reg 32 + s_axi_ctrl_wdata [31:0] $end
$var reg 1 , s_axi_ctrl_bvalid $end
$var reg 1 - s_axi_ctrl_bready $end
$var reg 2 . s_axi_ctrl_bresp [1:0] $end
$var reg 1 / s_axi_ctrl_arvalid $end
$var reg 1 0 s_axi_ctrl_arready $end
$var reg 8 1 s_axi_ctrl_araddr [7:0] $end
$var reg 1 2 s_axi_ctrl_rvalid $end
$var reg 1 3 s_axi_ctrl_rready $end
$var reg 2 4 s_axi_ctrl_rresp [1:0] $end
$var reg 32 5 s_axi_ctrl_rdata [31:0] $end
$scope module DRIVER $end
$var wire 1 $ s_axi_ctrl_aclk $end
$upscope $end
$scope module MONITOR $end
$var wire 1 $ s_axi_ctrl_aclk $end
$upscope $end
$scope module axi4_lite_driver $end
$var reg 1 6 s_axi_ctrl_awready $end
$var reg 1 7 s_axi_ctrl_wready $end
$var reg 2 8 s_axi_ctrl_bresp [1:0] $end
$var reg 1 9 s_axi_ctrl_bvalid $end
$var reg 1 : s_axi_ctrl_arready $end
$var reg 32 ; s_axi_ctrl_rdata [31:0] $end
$var reg 2 < s_axi_ctrl_rresp [1:0] $end
$var reg 1 = s_axi_ctrl_rvalid $end
$var reg 1 > s_axi_ctrl_rready $end
$var reg 1 ? s_axi_ctrl_arvalid $end
$var reg 8 @ s_axi_ctrl_araddr [7:0] $end
$var reg 1 A s_axi_ctrl_bready $end
$var reg 1 B s_axi_ctrl_wvalid $end
$var reg 32 C s_axi_ctrl_wdata [31:0] $end
$var reg 1 D s_axi_ctrl_awvalid $end
$var reg 8 E s_axi_ctrl_awaddr [7:0] $end
$upscope $end
$scope module axi4_lite_monitor $end
$var reg 8 F s_axi_ctrl_awaddr [7:0] $end
$var reg 1 G s_axi_ctrl_awvalid $end
$var reg 1 H s_axi_ctrl_awready $end
$var reg 32 I s_axi_ctrl_wdata [31:0] $end
$var reg 1 J s_axi_ctrl_wvalid $end
$var reg 1 K s_axi_ctrl_wready $end
$var reg 1 L s_axi_ctrl_bready $end
$var reg 2 M s_axi_ctrl_bresp [1:0] $end
$var reg 1 N s_axi_ctrl_bvalid $end
$var reg 8 O s_axi_ctrl_araddr [7:0] $end
$var reg 1 P s_axi_ctrl_arvalid $end
$var reg 1 Q s_axi_ctrl_arready $end
$var reg 1 R s_axi_ctrl_rready $end
$var reg 32 S s_axi_ctrl_rdata [31:0] $end
$var reg 2 T s_axi_ctrl_rresp [1:0] $end
$var reg 1 U s_axi_ctrl_rvalid $end
$upscope $end
$scope task reset $end
$upscope $end
$upscope $end
$scope module axis_intf $end
$var wire 1 V s_axis_aud_aclk $end
$var wire 1 W s_axis_aud_aresetn $end
$var reg 32 X s_axis_aud_tdata [31:0] $end
$var reg 3 Y s_axis_aud_tid [2:0] $end
$var reg 1 Z s_axis_aud_tvalid $end
$var reg 1 [ s_axis_aud_tready $end
$scope module DRIVER $end
$var wire 1 V s_axis_aud_aclk $end
$upscope $end
$scope module MONITOR $end
$var wire 1 V s_axis_aud_aclk $end
$upscope $end
$scope module axi_stream_driver $end
$var reg 1 \ s_axis_aud_tready $end
$var reg 1 ] s_axis_aud_tvalid $end
$var reg 3 ^ s_axis_aud_tid [2:0] $end
$var reg 32 _ s_axis_aud_tdata [31:0] $end
$upscope $end
$scope module axi_stream_monitor $end
$var reg 32 ` s_axis_aud_tdata [31:0] $end
$var reg 3 a s_axis_aud_tid [2:0] $end
$var reg 1 b s_axis_aud_tvalid $end
$var reg 1 c s_axis_aud_tready $end
$upscope $end
$scope task reset $end
$upscope $end
$upscope $end
$scope module dut_intf $end
$var wire 1 d aud_mclk $end
$var wire 1 e aud_mrst $end
$var reg 1 f irq $end
$var reg 1 g lrclk_out $end
$var reg 1 h sclk_out $end
$var reg 1 i sdata_0_out $end
$upscope $end
$scope module DUT $end
$var wire 1 j s_axi_ctrl_aclk $end
$var wire 1 k s_axi_ctrl_aresetn $end
$var wire 1 l aud_mclk $end
$var wire 1 m aud_mrst $end
$var wire 1 n s_axis_aud_aclk $end
$var wire 1 o s_axis_aud_aresetn $end
$var wire 1 p s_axi_ctrl_awvalid $end
$var wire 1 q s_axi_ctrl_awready $end
$var wire 8 r s_axi_ctrl_awaddr [7:0] $end
$var wire 1 s s_axi_ctrl_wvalid $end
$var wire 1 t s_axi_ctrl_wready $end
$var wire 32 u s_axi_ctrl_wdata [31:0] $end
$var wire 1 v s_axi_ctrl_bvalid $end
$var wire 1 w s_axi_ctrl_bready $end
$var wire 2 x s_axi_ctrl_bresp [1:0] $end
$var wire 1 y s_axi_ctrl_arvalid $end
$var wire 1 z s_axi_ctrl_arready $end
$var wire 8 { s_axi_ctrl_araddr [7:0] $end
$var wire 1 | s_axi_ctrl_rvalid $end
$var wire 1 } s_axi_ctrl_rready $end
$var wire 32 ~ s_axi_ctrl_rdata [31:0] $end
$var wire 2 !! s_axi_ctrl_rresp [1:0] $end
$var wire 1 "! irq $end
$var wire 1 #! lrclk_out $end
$var wire 1 $! sclk_out $end
$var wire 1 %! sdata_0_out $end
$var wire 32 &! s_axis_aud_tdata [31:0] $end
$var wire 3 '! s_axis_aud_tid [2:0] $end
$var wire 1 (! s_axis_aud_tvalid $end
$var wire 1 )! s_axis_aud_tready $end
$upscope $end
$upscope $end
$enddefinitions $end
#0
$dumpvars
0!
bx !!
1"
x"!
0#
x#!
0$
x$!
0%
x%!
0&
bx &!
x'
bx '!
b0 (
x(!
0)
x)!
x*
b0 +
x,
0-
bx .
0/
x0
b0 1
x2
03
bx 4
bx 5
x6
x7
bx 8
x9
x:
bx ;
bx <
x=
x>
x?
bx @
xA
xB
bx C
xD
bx E
bx F
xG
xH
bx I
xJ
xK
xL
bx M
xN
bx O
xP
xQ
xR
bx S
bx T
xU
0V
0W
bx X
bx Y
xZ
x[
x\
0]
b0 ^
b0 _
bx `
bx a
xb
xc
0d
1e
xf
xg
xh
xi
0j
0k
0l
1m
0n
0o
0p
xq
b0 r
0s
xt
b0 u
xv
0w
bx x
0y
xz
b0 {
x|
0}
bx ~
$end
#10000
1!
b0 !!
0"!
0#!
1$
0$!
b0 &!
0'
b0 '!
0(!
0)!
0*
0,
b0 .
00
02
b0 4
b0 5
x6
x7
bx 8
x9
x:
bx ;
bx <
x=
b0 F
0G
xH
b0 I
0J
xK
0L
bx M
xN
b0 O
0P
xQ
0R
bx S
bx T
xU
1V
b0 X
b0 Y
0Z
0[
x\
bx `
bx a
xb
xc
1d
0f
0g
0h
1j
1l
1n
0q
0t
0v
b0 x
0z
0|
b0 ~
#20000
0!
0$
0V
0d
0j
0l
0n
#30000
1!
1$
0)!
06
07
b0 8
09
0:
b0 ;
b0 <
0=
b0 F
0G
0H
b0 I
0J
0K
0L
b0 M
0N
b0 O
0P
0Q
0R
b0 S
b0 T
0U
1V
0\
b0 `
b0 a
0b
0c
1d
1j
1l
1n
#40000
0!
0$
0V
0d
0j
0l
0n
#50000
1!
1$
0)!
06
07
b0 8
09
0:
b0 ;
b0 <
0=
b0 F
0G
0H
b0 I
0J
0K
0L
b0 M
0N
b0 O
0P
0Q
0R
b0 S
b0 T
0U
1V
0\
b0 `
b0 a
0b
0c
1d
1j
1l
1n
#60000
0!
0$
0V
0d
0j
0l
0n
#70000
1!
1$
0)!
06
07
b0 8
09
0:
b0 ;
b0 <
0=
b0 F
0G
0H
b0 I
0J
0K
0L
b0 M
0N
b0 O
0P
0Q
0R
b0 S
b0 T
0U
1V
0\
b0 `
b0 a
0b
0c
1d
1j
1l
1n
#80000
0!
0$
0V
0d
0j
0l
0n
#90000
1!
1$
0)!
06
07
b0 8
09
0:
b0 ;
b0 <
0=
b0 F
0G
0H
b0 I
0J
0K
0L
b0 M
0N
b0 O
0P
0Q
0R
b0 S
b0 T
0U
1V
0\
b0 `
b0 a
0b
0c
1d
1j
1l
1n
#100000
0!
0"
1#
0$
1%
0V
1W
0d
0e
0j
1k
0l
0m
0n
1o
#110000
1!
1$
1&
1'
b1000 (
1)!
10
06
07
b0 8
09
0:
b0 ;
b0 <
0=
1D
b1000 E
b0 F
0G
0H
b0 I
0J
0K
0L
b0 M
0N
b0 O
0P
0Q
0R
b0 S
b0 T
0U
1V
1[
0\
b0 `
b0 a
0b
0c
1d
1j
1l
1n
1p
1q
b1000 r
1z
#120000
0!
0$
0V
0d
0j
0l
0n
#130000
1!
1$
0'
1)!
1*
16
07
b0 8
09
1:
b0 ;
b0 <
0=
b1000 F
1G
1H
b0 I
0J
0K
0L
b0 M
0N
b0 O
0P
1Q
0R
b0 S
b0 T
0U
1V
1\
b0 `
b0 a
0b
1c
1d
1j
1l
1n
0q
1t
#140000
0!
0$
0V
0d
0j
0l
0n
#150000
1!
1$
0&
1)
0)!
b1 +
06
17
b0 8
09
1:
b0 ;
b0 <
0=
1B
b1 C
0D
b1000 F
1G
0H
b0 I
0J
1K
0L
b0 M
0N
b0 O
0P
1Q
0R
b0 S
b0 T
0U
1V
0[
1\
b0 `
b0 a
0b
1c
1d
1j
1l
1n
0p
1s
b1 u
#160000
0!
0$
0V
0d
0j
0l
0n
#170000
1!
1$
0*
1,
06
17
b0 8
09
1:
b0 ;
b0 <
0=
b1000 F
0G
0H
b1 I
1J
1K
0L
b0 M
0N
b0 O
0P
1Q
0R
b0 S
b0 T
0U
1V
0\
b0 `
b0 a
0b
0c
1d
1j
1l
1n
0t
1v
#180000
0!
0$
0V
0d
0j
0l
0n
#190000
1!
1$
1-
06
07
b0 8
19
1:
b0 ;
b0 <
0=
1A
b1000 F
0G
0H
b1 I
1J
0K
0L
b0 M
1N
b0 O
0P
1Q
0R
b0 S
b0 T
0U
1V
0\
b0 `
b0 a
0b
0c
1d
1j
1l
1n
1w
#200000
0!
0$
0V
0d
0j
0l
0n
#210000
1!
1$
0)
0,
0-
06
07
b0 8
19
1:
b0 ;
b0 <
0=
0A
0B
b1000 F
0G
0H
b1 I
1J
0K
1L
b0 M
1N
b0 O
0P
1Q
0R
b0 S
b0 T
0U
1V
0\
b0 `
b0 a
0b
0c
1d
1j
1l
1n
0s
0v
0w
#220000
0!
0$
0V
0d
0j
0l
0n
#230000
1!
1$
1&
1'
b1100 (
06
07
b0 8
09
1:
b0 ;
b0 <
0=
1D
b1100 E
b1000 F
0G
0H
b1 I
0J
0K
0L
b0 M
0N
b0 O
0P
1Q
0R
b0 S
b0 T
0U
1V
0\
b0 `
b0 a
0b
0c
1d
1j
1l
1n
1p
1q
b1100 r
#240000
0!
0$
0V
0d
0j
0l
0n
#250000
1!
1$
0'
1*
16
07
b0 8
09
1:
b0 ;
b0 <
0=
b1100 F
1G
1H
b1 I
0J
0K
0L
b0 M
0N
b0 O
0P
1Q
0R
b0 S
b0 T
0U
1V
0\
b0 `
b0 a
0b
0c
1d
1j
1l
1n
0q
1t
#260000
0!
0$
0V
0d
0j
0l
0n
#270000
1!
1$
1$!
0&
1)
06
17
b0 8
09
1:
b0 ;
b0 <
0=
1B
b1 C
0D
b1100 F
1G
0H
b1 I
0J
1K
0L
b0 M
0N
b0 O
0P
1Q
0R
b0 S
b0 T
0U
1V
0\
b0 `
b0 a
0b
0c
1d
1h
1j
1l
1n
0p
1s
#280000
0!
0$
0V
0d
0j
0l
0n
#290000
1!
1$
0*
1,
06
17
b0 8
09
1:
b0 ;
b0 <
0=
b1100 F
0G
0H
b1 I
1J
1K
0L
b0 M
0N
b0 O
0P
1Q
0R
b0 S
b0 T
0U
1V
0\
b0 `
b0 a
0b
0c
1d
1j
1l
1n
0t
1v
#300000
0!
0$
0V
0d
0j
0l
0n
#310000
1!
1$
1-
06
07
b0 8
19
1:
b0 ;
b0 <
0=
1A
b1100 F
0G
0H
b1 I
1J
0K
0L
b0 M
1N
b0 O
0P
1Q
0R
b0 S
b0 T
0U
1V
0\
b0 `
b0 a
0b
0c
1d
1j
1l
1n
1w
#320000
0!
0$
0V
0d
0j
0l
0n
#330000
1!
1$
0)
0,
0-
06
07
b0 8
19
1:
b0 ;
b0 <
0=
0A
0B
b1100 F
0G
0H
b1 I
1J
0K
1L
b0 M
1N
b0 O
0P
1Q
0R
b0 S
b0 T
0U
1V
0\
b0 `
b0 a
0b
0c
1d
1j
1l
1n
0s
0v
0w
#340000
0!
0$
0V
0d
0j
0l
0n
#350000
1!
1$
1&
1'
b10000 (
06
07
b0 8
09
1:
b0 ;
b0 <
0=
1D
b10000 E
b1100 F
0G
0H
b1 I
0J
0K
0L
b0 M
0N
b0 O
0P
1Q
0R
b0 S
b0 T
0U
1V
0\
b0 `
b0 a
0b
0c
1d
1j
1l
1n
1p
1q
b10000 r
#360000
0!
0$
0V
0d
0j
0l
0n
#370000
1!
1$
0'
1*
16
07
b0 8
09
1:
b0 ;
b0 <
0=
b10000 F
1G
1H
b1 I
0J
0K
0L
b0 M
0N
b0 O
0P
1Q
0R
b0 S
b0 T
0U
1V
0\
b0 `
b0 a
0b
0c
1d
1j
1l
1n
0q
1t
#380000
0!
0$
0V
0d
0j
0l
0n
#390000
1!
1$
0&
1)
b10000000000000000000000000000111 +
06
17
b0 8
09
1:
b0 ;
b0 <
0=
1B
b10000000000000000000000000000111 C
0D
b10000 F
1G
0H
b1 I
0J
1K
0L
b0 M
0N
b0 O
0P
1Q
0R
b0 S
b0 T
0U
1V
0\
b0 `
b0 a
0b
0c
1d
1j
1l
1n
0p
1s
b10000000000000000000000000000111 u
#400000
0!
0$
0V
0d
0j
0l
0n
#410000
1!
1$
0*
1,
06
17
b0 8
09
1:
b0 ;
b0 <
0=
b10000 F
0G
0H
b10000000000000000000000000000111 I
1J
1K
0L
b0 M
0N
b0 O
0P
1Q
0R
b0 S
b0 T
0U
1V
0\
b0 `
b0 a
0b
0c
1d
1j
1l
1n
0t
1v
#420000
0!
0$
0V
0d
0j
0l
0n
#430000
1!
1$
1-
06
07
b0 8
19
1:
b0 ;
b0 <
0=
1A
b10000 F
0G
0H
b10000000000000000000000000000111 I
1J
0K
0L
b0 M
1N
b0 O
0P
1Q
0R
b0 S
b0 T
0U
1V
0\
b0 `
b0 a
0b
0c
1d
1j
1l
1n
1w
#440000
0!
0$
0V
0d
0j
0l
0n
#450000
1!
1$
0)
0,
0-
06
07
b0 8
19
1:
b0 ;
b0 <
0=
0A
0B
b10000 F
0G
0H
b10000000000000000000000000000111 I
1J
0K
1L
b0 M
1N
b0 O
0P
1Q
0R
b0 S
b0 T
0U
1V
0\
b0 `
b0 a
0b
0c
1d
1j
1l
1n
0s
0v
0w
#460000
0!
0$
0V
0d
0j
0l
0n
#470000
1!
1$
1'
06
07
b0 8
09
1:
b0 ;
b0 <
0=
b10000 F
0G
0H
b10000000000000000000000000000111 I
0J
0K
0L
b0 M
0N
b0 O
0P
1Q
0R
b0 S
b0 T
0U
1V
0\
b0 `
b0 a
0b
0c
1d
1j
1l
1n
1q
#480000
0!
0$
0V
0d
0j
0l
0n
#490000
1!
1$
16
07
b0 8
09
1:
b0 ;
b0 <
0=
b10000 F
0G
1H
b10000000000000000000000000000111 I
0J
0K
0L
b0 M
0N
b0 O
0P
1Q
0R
b0 S
b0 T
0U
1V
0\
b0 `
b0 a
0b
0c
1d
1j
1l
1n
#500000
0!
0$
0V
0d
0j
0l
0n
#510000
1!
1$
16
07
b0 8
09
1:
b0 ;
b0 <
0=
b10000 F
0G
1H
b10000000000000000000000000000111 I
0J
0K
0L
b0 M
0N
b0 O
0P
1Q
0R
b0 S
b0 T
0U
1V
0\
b0 `
b0 a
0b
0c
1d
1j
1l
1n
#520000
0!
0$
0V
0d
0j
0l
0n
#530000
1!
1$
16
07
b0 8
09
1:
b0 ;
b0 <
0=
b10000 F
0G
1H
b10000000000000000000000000000111 I
0J
0K
0L
b0 M
0N
b0 O
0P
1Q
0R
b0 S
b0 T
0U
1V
0\
b0 `
b0 a
0b
0c
1d
1j
1l
1n
#540000
0!
0$
0V
0d
0j
0l
0n
#550000
1!
1$
16
07
b0 8
09
1:
b0 ;
b0 <
0=
b10000 F
0G
1H
b10000000000000000000000000000111 I
0J
0K
0L
b0 M
0N
b0 O
0P
1Q
0R
b0 S
b0 T
0U
1V
0\
b0 `
b0 a
0b
0c
1d
1j
1l
1n
#560000
0!
0$
0V
0d
0j
0l
0n
#570000
1!
1$
1/
b100000 1
16
07
b0 8
09
1:
b0 ;
b0 <
0=
1?
b100000 @
b10000 F
0G
1H
b10000000000000000000000000000111 I
0J
0K
0L
b0 M
0N
b0 O
0P
1Q
0R
b0 S
b0 T
0U
1V
0\
b0 `
b0 a
0b
0c
1d
1j
1l
1n
1y
b100000 {
#580000
0!
0$
0V
0d
0j
0l
0n
#590000
1!
1$
0/
00
13
16
07
b0 8
09
1:
b0 ;
b0 <
0=
1>
0?
b10000 F
0G
1H
b10000000000000000000000000000111 I
0J
0K
0L
b0 M
0N
b100000 O
1P
1Q
0R
b0 S
b0 T
0U
1V
0\
b0 `
b0 a
0b
0c
1d
1j
1l
1n
0y
0z
1}
#600000
0!
0$
0V
0d
0j
0l
0n
#610000
1!
1$
12
16
07
b0 8
09
0:
b0 ;
b0 <
0=
b10000 F
0G
1H
b10000000000000000000000000000111 I
0J
0K
0L
b0 M
0N
b100000 O
0P
0Q
1R
b0 S
b0 T
0U
1V
0\
b0 `
b0 a
0b
0c
1d
1j
1l
1n
1|
#620000
0!
0$
0V
0d
0j
0l
0n
#630000
1!
1$
02
03
16
07
b0 8
09
0:
b0 ;
b0 <
1=
0>
b10000 F
0G
1H
b10000000000000000000000000000111 I
0J
0K
0L
b0 M
0N
b100000 O
0P
0Q
1R
b0 S
b0 T
1U
1V
0\
b0 `
b0 a
0b
0c
1d
1j
1l
1n
0|
0}
#640000
0!
0$
0V
0d
0j
0l
0n
#650000
1!
1$
1/
10
b1000 1
16
07
b0 8
09
0:
b0 ;
b0 <
0=
1?
b1000 @
b10000 F
0G
1H
b10000000000000000000000000000111 I
0J
0K
0L
b0 M
0N
b100000 O
0P
0Q
0R
b0 S
b0 T
0U
1V
0\
b0 `
b0 a
0b
0c
1d
1j
1l
1n
1y
1z
b1000 {
#660000
0!
0$
0V
0d
0j
0l
0n
#670000
1!
1$
00
16
07
b0 8
09
1:
b0 ;
b0 <
0=
b10000 F
0G
1H
b10000000000000000000000000000111 I
0J
0K
0L
b0 M
0N
b1000 O
1P
1Q
0R
b0 S
b0 T
0U
1V
0\
b0 `
b0 a
0b
0c
1d
1j
1l
1n
0z
#680000
0!
0$
0V
0d
0j
0l
0n
#690000
1!
1$
0/
12
13
b1 5
16
07
b0 8
09
0:
b0 ;
b0 <
0=
1>
0?
b10000 F
0G
1H
b10000000000000000000000000000111 I
0J
0K
0L
b0 M
0N
b1000 O
1P
0Q
0R
b0 S
b0 T
0U
1V
0\
b0 `
b0 a
0b
0c
1d
1j
1l
1n
0y
1|
1}
b1 ~
#700000
0!
0$
0V
0d
0j
0l
0n
#710000
1!
1$
02
03
16
07
b0 8
09
0:
b1 ;
b0 <
1=
0>
b10000 F
0G
1H
b10000000000000000000000000000111 I
0J
0K
0L
b0 M
0N
b1000 O
0P
0Q
1R
b1 S
b0 T
1U
1V
0\
b0 `
b0 a
0b
0c
1d
1j
1l
1n
0|
0}
#720000
0!
0$
0V
0d
0j
0l
0n
#730000
1!
1$
1/
10
b1010000 1
b0 5
16
07
b0 8
09
0:
b1 ;
b0 <
0=
1?
b1010000 @
b10000 F
0G
1H
b10000000000000000000000000000111 I
0J
0K
0L
b0 M
0N
b1000 O
0P
0Q
0R
b1 S
b0 T
0U
1V
0\
b0 `
b0 a
0b
0c
1d
1j
1l
1n
1y
1z
b1010000 {
b0 ~
#740000
0!
0$
0V
0d
0j
0l
0n
#750000
1!
1$
00
16
07
b0 8
09
1:
b0 ;
b0 <
0=
b10000 F
0G
1H
b10000000000000000000000000000111 I
0J
0K
0L
b0 M
0N
b1010000 O
1P
1Q
0R
b0 S
b0 T
0U
1V
0\
b0 `
b0 a
0b
0c
1d
1j
1l
1n
0z
#760000
0!
0$
0V
0d
0j
0l
0n
#770000
1!
1$
0/
12
13
16
07
b0 8
09
0:
b0 ;
b0 <
0=
1>
0?
b10000 F
0G
1H
b10000000000000000000000000000111 I
0J
0K
0L
b0 M
0N
b1010000 O
1P
0Q
0R
b0 S
b0 T
0U
1V
0\
b0 `
b0 a
0b
0c
1d
1j
1l
1n
0y
1|
1}
#780000
0!
0$
0V
0d
0j
0l
0n
#790000
1!
1$
1)!
02
03
16
07
b0 8
09
0:
b0 ;
b0 <
1=
0>
b10000 F
0G
1H
b10000000000000000000000000000111 I
0J
0K
0L
b0 M
0N
b1010000 O
0P
0Q
1R
b0 S
b0 T
1U
1V
1[
0\
b0 `
b0 a
0b
0c
1d
1j
1l
1n
0|
0}
#800000
0!
0$
0V
0d
0j
0l
0n
#810000
1!
1$
1/
10
b1100100 1
16
07
b0 8
09
0:
b0 ;
b0 <
0=
1?
b1100100 @
b10000 F
0G
1H
b10000000000000000000000000000111 I
0J
0K
0L
b0 M
0N
b1010000 O
0P
0Q
0R
b0 S
b0 T
0U
1V
1\
b0 `
b0 a
0b
1c
1d
1j
1l
1n
1y
1z
b1100100 {
#820000
0!
0$
0V
0d
0j
0l
0n
#830000
1!
1$
00
16
07
b0 8
09
1:
b0 ;
b0 <
0=
b10000 F
0G
1H
b10000000000000000000000000000111 I
0J
0K
0L
b0 M
0N
b1100100 O
1P
1Q
0R
b0 S
b0 T
0U
1V
1\
b0 `
b0 a
0b
1c
1d
1j
1l
1n
0z
#840000
0!
0$
0V
0d
0j
0l
0n
#850000
1!
1$
0/
12
13
16
07
b0 8
09
0:
b0 ;
b0 <
0=
1>
0?
b10000 F
0G
1H
b10000000000000000000000000000111 I
0J
0K
0L
b0 M
0N
b1100100 O
1P
0Q
0R
b0 S
b0 T
0U
1V
1\
b0 `
b0 a
0b
1c
1d
1j
1l
1n
0y
1|
1}
#860000
0!
0$
0V
0d
0j
0l
0n
#870000
1!
1$
02
03
16
07
b0 8
09
0:
b0 ;
b0 <
1=
0>
b10000 F
0G
1H
b10000000000000000000000000000111 I
0J
0K
0L
b0 M
0N
b1100100 O
0P
0Q
1R
b0 S
b0 T
1U
1V
1\
b0 `
b0 a
0b
1c
1d
1j
1l
1n
0|
0}
#880000
0!
0$
0V
0d
0j
0l
0n
#890000
1!
1$
1/
10
b1000 1
16
07
b0 8
09
0:
b0 ;
b0 <
0=
1?
b1000 @
b10000 F
0G
1H
b10000000000000000000000000000111 I
0J
0K
0L
b0 M
0N
b1100100 O
0P
0Q
0R
b0 S
b0 T
0U
1V
1\
b0 `
b0 a
0b
1c
1d
1j
1l
1n
1y
1z
b1000 {
#900000
0!
0$
0V
0d
0j
0l
0n
#910000
1!
1$
00
16
07
b0 8
09
1:
b0 ;
b0 <
0=
b10000 F
0G
1H
b10000000000000000000000000000111 I
0J
0K
0L
b0 M
0N
b1000 O
1P
1Q
0R
b0 S
b0 T
0U
1V
1\
b0 `
b0 a
0b
1c
1d
1j
1l
1n
0z
#920000
0!
0$
0V
0d
0j
0l
0n
#930000
1!
1$
0/
12
13
b1 5
16
07
b0 8
09
0:
b0 ;
b0 <
0=
1>
0?
b10000 F
0G
1H
b10000000000000000000000000000111 I
0J
0K
0L
b0 M
0N
b1000 O
1P
0Q
0R
b0 S
b0 T
0U
1V
1\
b0 `
b0 a
0b
1c
1d
1j
1l
1n
0y
1|
1}
b1 ~
#940000
0!
0$
0V
0d
0j
0l
0n
#950000
1!
1$
02
03
16
07
b0 8
09
0:
b1 ;
b0 <
1=
0>
b10000 F
0G
1H
b10000000000000000000000000000111 I
0J
0K
0L
b0 M
0N
b1000 O
0P
0Q
1R
b1 S
b0 T
1U
1V
1\
b0 `
b0 a
0b
1c
1d
1j
1l
1n
0|
0}
#960000
0!
0$
0V
0d
0j
0l
0n
#970000
1!
1$
1/
10
b10000 1
b0 5
16
07
b0 8
09
0:
b1 ;
b0 <
0=
1?
b10000 @
b10000 F
0G
1H
b10000000000000000000000000000111 I
0J
0K
0L
b0 M
0N
b1000 O
0P
0Q
0R
b1 S
b0 T
0U
1V
1\
b0 `
b0 a
0b
1c
1d
1j
1l
1n
1y
1z
b10000 {
b0 ~
#980000
0!
0$
0V
0d
0j
0l
0n
#990000
1!
1$
00
16
07
b0 8
09
1:
b0 ;
b0 <
0=
b10000 F
0G
1H
b10000000000000000000000000000111 I
0J
0K
0L
b0 M
0N
b10000 O
1P
1Q
0R
b0 S
b0 T
0U
1V
1\
b0 `
b0 a
0b
1c
1d
1j
1l
1n
0z
#1000000
0!
0$
0V
0d
0j
0l
0n
#1010000
1!
1$
0/
12
13
b10000000000000000000000000000111 5
16
07
b0 8
09
0:
b0 ;
b0 <
0=
1>
0?
b10000 F
0G
1H
b10000000000000000000000000000111 I
0J
0K
0L
b0 M
0N
b10000 O
1P
0Q
0R
b0 S
b0 T
0U
1V
1\
b0 `
b0 a
0b
1c
1d
1j
1l
1n
0y
1|
1}
b10000000000000000000000000000111 ~
#1020000
0!
0$
0V
0d
0j
0l
0n
#1030000
1!
1$
02
03
16
07
b0 8
09
0:
b10000000000000000000000000000111 ;
b0 <
1=
0>
b10000 F
0G
1H
b10000000000000000000000000000111 I
0J
0K
0L
b0 M
0N
b10000 O
0P
0Q
1R
b10000000000000000000000000000111 S
b0 T
1U
1V
1\
b0 `
b0 a
0b
1c
1d
1j
1l
1n
0|
0}
#1040000
0!
0$
0V
0d
0j
0l
0n
#1050000
1!
1$
1/
10
b110000 1
b0 5
16
07
b0 8
09
0:
b10000000000000000000000000000111 ;
b0 <
0=
1?
b110000 @
b10000 F
0G
1H
b10000000000000000000000000000111 I
0J
0K
0L
b0 M
0N
b10000 O
0P
0Q
0R
b10000000000000000000000000000111 S
b0 T
0U
1V
1\
b0 `
b0 a
0b
1c
1d
1j
1l
1n
1y
1z
b110000 {
b0 ~
#1060000
0!
0$
0V
0d
0j
0l
0n
#1070000
1!
1$
00
16
07
b0 8
09
1:
b0 ;
b0 <
0=
b10000 F
0G
1H
b10000000000000000000000000000111 I
0J
0K
0L
b0 M
0N
b110000 O
1P
1Q
0R
b0 S
b0 T
0U
1V
1\
b0 `
b0 a
0b
1c
1d
1j
1l
1n
0z
#1080000
0!
0$
0V
0d
0j
0l
0n
#1090000
1!
1$
0/
12
13
b1 5
16
07
b0 8
09
0:
b0 ;
b0 <
0=
1>
0?
b10000 F
0G
1H
b10000000000000000000000000000111 I
0J
0K
0L
b0 M
0N
b110000 O
1P
0Q
0R
b0 S
b0 T
0U
1V
1\
b0 `
b0 a
0b
1c
1d
1j
1l
1n
0y
1|
1}
b1 ~
#1100000
0!
0$
0V
0d
0j
0l
0n
#1110000
1!
1$
02
03
16
07
b0 8
09
0:
b1 ;
b0 <
1=
0>
b10000 F
0G
1H
b10000000000000000000000000000111 I
0J
0K
0L
b0 M
0N
b110000 O
0P
0Q
1R
b1 S
b0 T
1U
1V
1\
b0 `
b0 a
0b
1c
1d
1j
1l
1n
0|
0}
#1120000
0!
0$
0V
0d
0j
0l
0n
#1130000
1!
1$
1/
10
b100000 1
b0 5
16
07
b0 8
09
0:
b1 ;
b0 <
0=
1?
b100000 @
b10000 F
0G
1H
b10000000000000000000000000000111 I
0J
0K
0L
b0 M
0N
b110000 O
0P
0Q
0R
b1 S
b0 T
0U
1V
1\
b0 `
b0 a
0b
1c
1d
1j
1l
1n
1y
1z
b100000 {
b0 ~
#1140000
0!
0$
0V
0d
0j
0l
0n
#1150000
1!
1$
00
16
07
b0 8
09
1:
b0 ;
b0 <
0=
b10000 F
0G
1H
b10000000000000000000000000000111 I
0J
0K
0L
b0 M
0N
b100000 O
1P
1Q
0R
b0 S
b0 T
0U
1V
1\
b0 `
b0 a
0b
1c
1d
1j
1l
1n
0z
#1160000
0!
0$
0V
0d
0j
0l
0n
#1170000
1!
1$
0/
12
13
16
07
b0 8
09
0:
b0 ;
b0 <
0=
1>
0?
b10000 F
0G
1H
b10000000000000000000000000000111 I
0J
0K
0L
b0 M
0N
b100000 O
1P
0Q
0R
b0 S
b0 T
0U
1V
1\
b0 `
b0 a
0b
1c
1d
1j
1l
1n
0y
1|
1}
#1180000
0!
0$
0V
0d
0j
0l
0n
#1190000
1!
1$
02
03
16
07
b0 8
09
0:
b0 ;
b0 <
1=
0>
b10000 F
0G
1H
b10000000000000000000000000000111 I
0J
0K
0L
b0 M
0N
b100000 O
0P
0Q
1R
b0 S
b0 T
1U
1V
1\
b0 `
b0 a
0b
1c
1d
1j
1l
1n
0|
0}
#1200000
0!
0$
0V
0d
0j
0l
0n
#1210000
1!
1$
1/
10
b1100 1
16
07
b0 8
09
0:
b0 ;
b0 <
0=
1?
b1100 @
b10000 F
0G
1H
b10000000000000000000000000000111 I
0J
0K
0L
b0 M
0N
b100000 O
0P
0Q
0R
b0 S
b0 T
0U
1V
1\
b0 `
b0 a
0b
1c
1d
1j
1l
1n
1y
1z
b1100 {
#1220000
0!
0$
0V
0d
0j
0l
0n
